EESchema Schematic File Version 4
EELAYER 30 0
EELAYER END
$Descr A3 16535 11693
encoding utf-8
Sheet 2 3
Title "Alan and Friends"
Date ""
Rev "2"
Comp "phonemes"
Comment1 "Based on Turing Machine by Music Thing Modular"
Comment2 "CC-BY-SA"
Comment3 ""
Comment4 ""
$EndDescr
$Comp
L Connector_Generic:Conn_01x04 J?
U 1 1 5E5778CF
P 13450 4650
AR Path="/5DE3964E/5E3A2FD4/5E5778CF" Ref="J?"  Part="1" 
AR Path="/5DE3964E/5E5778CF" Ref="J25"  Part="1" 
F 0 "J25" H 13370 4967 50  0000 C CNN
F 1 "POWER" H 13370 4876 50  0000 C CNN
F 2 "custom:0.156_4pin" H 13450 4650 50  0001 C CNN
F 3 "~" H 13450 4650 50  0001 C CNN
	1    13450 4650
	-1   0    0    -1  
$EndComp
$Comp
L Diode:1N5817 D?
U 1 1 5E5778D6
P 14050 4550
AR Path="/5DE3964E/5E3A2FD4/5E5778D6" Ref="D?"  Part="1" 
AR Path="/5DE3964E/5E5778D6" Ref="D14"  Part="1" 
F 0 "D14" H 14150 4350 50  0000 C CNN
F 1 "1N5817" H 14050 4425 50  0000 C CNN
F 2 "Diode_THT:D_DO-41_SOD81_P10.16mm_Horizontal" H 14050 4375 50  0001 C CNN
F 3 "http://www.vishay.com/docs/88525/1n5817.pdf" H 14050 4550 50  0001 C CNN
	1    14050 4550
	-1   0    0    1   
$EndComp
$Comp
L Diode:1N5817 D?
U 1 1 5E5778DD
P 14050 4850
AR Path="/5DE3964E/5E3A2FD4/5E5778DD" Ref="D?"  Part="1" 
AR Path="/5DE3964E/5E5778DD" Ref="D15"  Part="1" 
F 0 "D15" H 13950 4650 50  0000 C CNN
F 1 "1N5817" H 14050 4750 50  0000 C CNN
F 2 "Diode_THT:D_DO-41_SOD81_P10.16mm_Horizontal" H 14050 4675 50  0001 C CNN
F 3 "http://www.vishay.com/docs/88525/1n5817.pdf" H 14050 4850 50  0001 C CNN
	1    14050 4850
	1    0    0    -1  
$EndComp
Wire Wire Line
	13650 4550 13900 4550
Wire Wire Line
	13650 4850 13900 4850
Wire Wire Line
	13650 4650 14500 4650
Wire Wire Line
	14500 4650 14500 4700
Wire Wire Line
	13650 4750 14500 4750
Connection ~ 14500 4750
Wire Wire Line
	14500 4750 14500 5000
$Comp
L power:GND #PWR?
U 1 1 5E5778EB
P 14500 5150
AR Path="/5DE3964E/5E3A2FD4/5E5778EB" Ref="#PWR?"  Part="1" 
AR Path="/5DE3964E/5E5778EB" Ref="#PWR0123"  Part="1" 
F 0 "#PWR0123" H 14500 4900 50  0001 C CNN
F 1 "GND" H 14505 4977 50  0000 C CNN
F 2 "" H 14500 5150 50  0001 C CNN
F 3 "" H 14500 5150 50  0001 C CNN
	1    14500 5150
	1    0    0    -1  
$EndComp
$Comp
L Device:R RFUSE?
U 1 1 5E5778F1
P 14700 4550
AR Path="/5DE3964E/5E3A2FD4/5E5778F1" Ref="RFUSE?"  Part="1" 
AR Path="/5DE3964E/5E5778F1" Ref="RFUSE1"  Part="1" 
F 0 "RFUSE1" V 14493 4550 50  0000 C CNN
F 1 "0R" V 14584 4550 50  0000 C CNN
F 2 "Resistor_THT:R_Axial_DIN0207_L6.3mm_D2.5mm_P10.16mm_Horizontal" V 14630 4550 50  0001 C CNN
F 3 "~" H 14700 4550 50  0001 C CNN
	1    14700 4550
	0    1    1    0   
$EndComp
$Comp
L Device:R RFUSE?
U 1 1 5E5778F8
P 14700 4850
AR Path="/5DE3964E/5E3A2FD4/5E5778F8" Ref="RFUSE?"  Part="1" 
AR Path="/5DE3964E/5E5778F8" Ref="RFUSE2"  Part="1" 
F 0 "RFUSE2" V 14900 4850 50  0000 C CNN
F 1 "0R" V 14800 4850 50  0000 C CNN
F 2 "Resistor_THT:R_Axial_DIN0207_L6.3mm_D2.5mm_P10.16mm_Horizontal" V 14630 4850 50  0001 C CNN
F 3 "~" H 14700 4850 50  0001 C CNN
	1    14700 4850
	0    1    1    0   
$EndComp
Wire Wire Line
	14200 4550 14550 4550
Wire Wire Line
	14200 4850 14550 4850
$Comp
L Device:CP C?
U 1 1 5E577901
P 15300 4500
AR Path="/5DE3964E/5E3A2FD4/5E577901" Ref="C?"  Part="1" 
AR Path="/5DE3964E/5E577901" Ref="C23"  Part="1" 
F 0 "C23" H 15418 4546 50  0000 L CNN
F 1 "10u" H 15418 4455 50  0000 L CNN
F 2 "Capacitor_THT:CP_Radial_D6.3mm_P2.50mm" H 15338 4350 50  0001 C CNN
F 3 "~" H 15300 4500 50  0001 C CNN
	1    15300 4500
	1    0    0    -1  
$EndComp
$Comp
L Device:CP C?
U 1 1 5E577908
P 15300 4900
AR Path="/5DE3964E/5E3A2FD4/5E577908" Ref="C?"  Part="1" 
AR Path="/5DE3964E/5E577908" Ref="C24"  Part="1" 
F 0 "C24" H 15418 4946 50  0000 L CNN
F 1 "10u" H 15418 4855 50  0000 L CNN
F 2 "Capacitor_THT:CP_Radial_D6.3mm_P2.50mm" H 15338 4750 50  0001 C CNN
F 3 "~" H 15300 4900 50  0001 C CNN
	1    15300 4900
	1    0    0    -1  
$EndComp
Wire Wire Line
	15300 4650 15300 4700
Wire Wire Line
	15300 4700 14500 4700
Connection ~ 15300 4700
Wire Wire Line
	15300 4700 15300 4750
Connection ~ 14500 4700
Wire Wire Line
	14500 4700 14500 4750
Wire Wire Line
	14850 4550 14950 4550
Wire Wire Line
	14950 4550 14950 4350
Wire Wire Line
	14950 4350 15050 4350
Wire Wire Line
	15300 5050 15050 5050
Wire Wire Line
	14950 5050 14950 4850
Wire Wire Line
	14950 4850 14850 4850
$Comp
L power:-12VA #PWR?
U 1 1 5E57791B
P 15300 5150
AR Path="/5DE3964E/5E3A2FD4/5E57791B" Ref="#PWR?"  Part="1" 
AR Path="/5DE3964E/5E57791B" Ref="#PWR0124"  Part="1" 
F 0 "#PWR0124" H 15300 5000 50  0001 C CNN
F 1 "-12VA" H 15315 5323 50  0000 C CNN
F 2 "" H 15300 5150 50  0001 C CNN
F 3 "" H 15300 5150 50  0001 C CNN
	1    15300 5150
	-1   0    0    1   
$EndComp
Wire Wire Line
	15300 5050 15300 5150
Connection ~ 15300 5050
$Comp
L power:+12VA #PWR?
U 1 1 5E577923
P 15300 4250
AR Path="/5DE3964E/5E3A2FD4/5E577923" Ref="#PWR?"  Part="1" 
AR Path="/5DE3964E/5E577923" Ref="#PWR0125"  Part="1" 
F 0 "#PWR0125" H 15300 4100 50  0001 C CNN
F 1 "+12VA" H 15315 4423 50  0000 C CNN
F 2 "" H 15300 4250 50  0001 C CNN
F 3 "" H 15300 4250 50  0001 C CNN
	1    15300 4250
	1    0    0    -1  
$EndComp
Wire Wire Line
	15300 4350 15300 4250
Connection ~ 15300 4350
$Comp
L power:PWR_FLAG #FLG?
U 1 1 5E57792B
P 15050 4100
AR Path="/5DE3964E/5E3A2FD4/5E57792B" Ref="#FLG?"  Part="1" 
AR Path="/5DE3964E/5E57792B" Ref="#FLG0101"  Part="1" 
F 0 "#FLG0101" H 15050 4175 50  0001 C CNN
F 1 "PWR_FLAG" H 15050 4274 50  0000 C CNN
F 2 "" H 15050 4100 50  0001 C CNN
F 3 "~" H 15050 4100 50  0001 C CNN
	1    15050 4100
	1    0    0    -1  
$EndComp
Wire Wire Line
	15050 4350 15050 4100
Connection ~ 15050 4350
Wire Wire Line
	15050 4350 15300 4350
$Comp
L power:PWR_FLAG #FLG?
U 1 1 5E577934
P 15050 5350
AR Path="/5DE3964E/5E3A2FD4/5E577934" Ref="#FLG?"  Part="1" 
AR Path="/5DE3964E/5E577934" Ref="#FLG0102"  Part="1" 
F 0 "#FLG0102" H 15050 5425 50  0001 C CNN
F 1 "PWR_FLAG" H 15050 5523 50  0000 C CNN
F 2 "" H 15050 5350 50  0001 C CNN
F 3 "~" H 15050 5350 50  0001 C CNN
	1    15050 5350
	-1   0    0    1   
$EndComp
Wire Wire Line
	15050 5350 15050 5050
Connection ~ 15050 5050
Wire Wire Line
	15050 5050 14950 5050
$Comp
L power:GNDPWR #PWR?
U 1 1 5E57793D
P 14250 5150
AR Path="/5DE3964E/5E3A2FD4/5E57793D" Ref="#PWR?"  Part="1" 
AR Path="/5DE3964E/5E57793D" Ref="#PWR0126"  Part="1" 
F 0 "#PWR0126" H 14250 4950 50  0001 C CNN
F 1 "GNDPWR" H 14250 5000 50  0000 C CNN
F 2 "" H 14250 5100 50  0001 C CNN
F 3 "" H 14250 5100 50  0001 C CNN
	1    14250 5150
	1    0    0    -1  
$EndComp
Wire Wire Line
	14500 5000 14250 5000
Wire Wire Line
	14250 5000 14250 5150
Connection ~ 14500 5000
Wire Wire Line
	14500 5000 14500 5150
$Comp
L Device:R R39
U 1 1 5E581EA5
P 1150 1550
F 0 "R39" V 1050 1500 50  0000 C CNN
F 1 "100k" V 1150 1550 50  0000 C CNN
F 2 "Resistor_THT:R_Axial_DIN0207_L6.3mm_D2.5mm_P10.16mm_Horizontal" V 1080 1550 50  0001 C CNN
F 3 "~" H 1150 1550 50  0001 C CNN
	1    1150 1550
	-1   0    0    1   
$EndComp
$Comp
L power:+12VA #PWR0127
U 1 1 5E5820AD
P 1150 1300
F 0 "#PWR0127" H 1150 1150 50  0001 C CNN
F 1 "+12VA" H 1165 1473 50  0000 C CNN
F 2 "" H 1150 1300 50  0001 C CNN
F 3 "" H 1150 1300 50  0001 C CNN
	1    1150 1300
	1    0    0    -1  
$EndComp
Wire Wire Line
	1150 1300 1150 1400
$Comp
L Transistor_BJT:2N3904 Q1
U 1 1 5E583668
P 1250 2000
F 0 "Q1" H 1441 1954 50  0000 L CNN
F 1 "2N3904" H 1441 2045 50  0000 L CNN
F 2 "Package_TO_SOT_THT:TO-92_Inline_Wide" H 1450 1925 50  0001 L CIN
F 3 "https://www.fairchildsemi.com/datasheets/2N/2N3904.pdf" H 1250 2000 50  0001 L CNN
	1    1250 2000
	-1   0    0    1   
$EndComp
Wire Wire Line
	1150 1700 1150 1750
NoConn ~ 1150 2200
Wire Wire Line
	1450 2000 1550 2000
Wire Wire Line
	1550 2000 1550 2200
$Comp
L power:GND #PWR0128
U 1 1 5E587D9F
P 1550 2200
F 0 "#PWR0128" H 1550 1950 50  0001 C CNN
F 1 "GND" H 1555 2027 50  0000 C CNN
F 2 "" H 1550 2200 50  0001 C CNN
F 3 "" H 1550 2200 50  0001 C CNN
	1    1550 2200
	1    0    0    -1  
$EndComp
Wire Wire Line
	1150 1750 1450 1750
Connection ~ 1150 1750
Wire Wire Line
	1150 1750 1150 1800
$Comp
L Device:C C6
U 1 1 5E5895D1
P 1600 1750
F 0 "C6" V 1348 1750 50  0000 C CNN
F 1 "0.47uF" V 1439 1750 50  0000 C CNN
F 2 "Capacitor_THT:C_Disc_D8.0mm_W2.5mm_P5.00mm" H 1638 1600 50  0001 C CNN
F 3 "~" H 1600 1750 50  0001 C CNN
	1    1600 1750
	0    1    1    0   
$EndComp
$Comp
L Device:R R42
U 1 1 5E5896D8
P 2000 1750
F 0 "R42" V 1900 1700 50  0000 C CNN
F 1 "10k" V 2000 1750 50  0000 C CNN
F 2 "Resistor_THT:R_Axial_DIN0207_L6.3mm_D2.5mm_P10.16mm_Horizontal" V 1930 1750 50  0001 C CNN
F 3 "~" H 2000 1750 50  0001 C CNN
	1    2000 1750
	0    -1   -1   0   
$EndComp
Wire Wire Line
	1850 1750 1750 1750
$Comp
L Device:R R44
U 1 1 5E58B0B3
P 2550 1450
F 0 "R44" V 2650 1450 50  0000 C CNN
F 1 "470k" V 2550 1450 50  0000 C CNN
F 2 "Resistor_THT:R_Axial_DIN0207_L6.3mm_D2.5mm_P10.16mm_Horizontal" V 2480 1450 50  0001 C CNN
F 3 "~" H 2550 1450 50  0001 C CNN
	1    2550 1450
	0    -1   -1   0   
$EndComp
Wire Wire Line
	2250 1750 2200 1750
$Comp
L power:GND #PWR0129
U 1 1 5E58F4CC
P 2150 2050
F 0 "#PWR0129" H 2150 1800 50  0001 C CNN
F 1 "GND" H 2155 1877 50  0000 C CNN
F 2 "" H 2150 2050 50  0001 C CNN
F 3 "" H 2150 2050 50  0001 C CNN
	1    2150 2050
	1    0    0    -1  
$EndComp
Wire Wire Line
	2250 1950 2150 1950
Wire Wire Line
	2150 1950 2150 2050
Wire Wire Line
	2400 1450 2200 1450
Wire Wire Line
	2200 1450 2200 1750
Connection ~ 2200 1750
Wire Wire Line
	2200 1750 2150 1750
Wire Wire Line
	2700 1450 2950 1450
Wire Wire Line
	2950 1450 2950 1850
Wire Wire Line
	2950 1850 2850 1850
Connection ~ 2950 1850
$Comp
L Device:R R46
U 1 1 5E596F6B
P 3600 1850
F 0 "R46" V 3500 1800 50  0000 C CNN
F 1 "1K" V 3600 1850 50  0000 C CNN
F 2 "Resistor_THT:R_Axial_DIN0207_L6.3mm_D2.5mm_P10.16mm_Horizontal" V 3530 1850 50  0001 C CNN
F 3 "~" H 3600 1850 50  0001 C CNN
	1    3600 1850
	0    -1   -1   0   
$EndComp
$Comp
L power:GND #PWR0130
U 1 1 5E59A0EC
P 5250 2450
F 0 "#PWR0130" H 5250 2200 50  0001 C CNN
F 1 "GND" H 5255 2277 50  0000 C CNN
F 2 "" H 5250 2450 50  0001 C CNN
F 3 "" H 5250 2450 50  0001 C CNN
	1    5250 2450
	1    0    0    -1  
$EndComp
Wire Wire Line
	3900 2050 3800 2050
Wire Wire Line
	3800 2050 3800 2150
Wire Wire Line
	3900 1850 3800 1850
$Comp
L Device:C C11
U 1 1 5E59E8ED
P 4200 1500
F 0 "C11" V 3948 1500 50  0000 C CNN
F 1 "1nF" V 4039 1500 50  0000 C CNN
F 2 "Capacitor_THT:C_Disc_D8.0mm_W2.5mm_P5.00mm" H 4238 1350 50  0001 C CNN
F 3 "~" H 4200 1500 50  0001 C CNN
	1    4200 1500
	0    1    1    0   
$EndComp
Wire Wire Line
	3800 1850 3800 1500
Wire Wire Line
	3800 1500 4050 1500
Connection ~ 3800 1850
Wire Wire Line
	3800 1850 3750 1850
Wire Wire Line
	4350 1500 4700 1500
Wire Wire Line
	4700 1500 4700 1950
Wire Wire Line
	4700 1950 4500 1950
$Comp
L Device:R_POT_TRIM RV7
U 1 1 5E5A3865
P 4200 1050
F 0 "RV7" V 4400 1300 50  0000 C CNN
F 1 "500K" V 4300 1300 50  0000 C CNN
F 2 "Potentiometer_THT:Potentiometer_Bourns_3386P_Vertical" H 4200 1050 50  0001 C CNN
F 3 "~" H 4200 1050 50  0001 C CNN
	1    4200 1050
	0    -1   -1   0   
$EndComp
Wire Wire Line
	3800 1050 3800 1500
Connection ~ 3800 1500
Wire Wire Line
	4350 1050 4450 1050
Wire Wire Line
	4700 1050 4700 1500
Connection ~ 4700 1500
Wire Wire Line
	4200 900  4200 850 
Wire Wire Line
	3800 1050 4050 1050
Wire Wire Line
	4200 850  4450 850 
Wire Wire Line
	4450 850  4450 1050
Connection ~ 4450 1050
Wire Wire Line
	4450 1050 4700 1050
$Comp
L Device:C C14
U 1 1 5E5B5B7B
P 5000 1950
F 0 "C14" V 4748 1950 50  0000 C CNN
F 1 "0.47uF" V 4839 1950 50  0000 C CNN
F 2 "Capacitor_THT:C_Disc_D8.0mm_W2.5mm_P5.00mm" H 5038 1800 50  0001 C CNN
F 3 "~" H 5000 1950 50  0001 C CNN
	1    5000 1950
	0    1    1    0   
$EndComp
Wire Wire Line
	4700 1950 4850 1950
Connection ~ 4700 1950
$Comp
L Device:R R51
U 1 1 5E5B91A8
P 5250 2200
F 0 "R51" V 5150 2150 50  0000 C CNN
F 1 "100k" V 5250 2200 50  0000 C CNN
F 2 "Resistor_THT:R_Axial_DIN0207_L6.3mm_D2.5mm_P10.16mm_Horizontal" V 5180 2200 50  0001 C CNN
F 3 "~" H 5250 2200 50  0001 C CNN
	1    5250 2200
	-1   0    0    1   
$EndComp
Wire Wire Line
	5150 1950 5250 1950
Wire Wire Line
	5250 1950 5250 2050
Wire Wire Line
	5250 2350 5250 2450
$Comp
L power:GND #PWR0131
U 1 1 5E5BF6E6
P 3800 2150
F 0 "#PWR0131" H 3800 1900 50  0001 C CNN
F 1 "GND" H 3805 1977 50  0000 C CNN
F 2 "" H 3800 2150 50  0001 C CNN
F 3 "" H 3800 2150 50  0001 C CNN
	1    3800 2150
	1    0    0    -1  
$EndComp
Wire Wire Line
	5250 1950 5450 1950
Connection ~ 5250 1950
Text Label 5450 1950 0    50   ~ 0
NOISE_BOTTOM
Wire Notes Line
	650  600  6300 600 
Wire Notes Line
	6300 600  6300 2800
Wire Notes Line
	6300 2800 650  2800
Wire Notes Line
	650  2800 650  600 
Text Notes 700  700  0    50   ~ 0
noise generator
Wire Wire Line
	1700 4000 1650 4000
Text Label 1450 4000 2    50   ~ 0
CLOCK_BOTTOM
$Comp
L Diode:1N4148 D12
U 1 1 5E31011D
P 2500 3900
F 0 "D12" H 2500 3684 50  0000 C CNN
F 1 "1N4148" H 2500 3775 50  0000 C CNN
F 2 "Diode_THT:D_DO-35_SOD27_P7.62mm_Horizontal" H 2500 3725 50  0001 C CNN
F 3 "http://www.nxp.com/documents/data_sheet/1N4148_1N4448.pdf" H 2500 3900 50  0001 C CNN
	1    2500 3900
	-1   0    0    1   
$EndComp
$Comp
L Device:R R43
U 1 1 5E313888
P 2050 4300
F 0 "R43" V 1950 4250 50  0000 C CNN
F 1 "470K" V 2050 4300 50  0000 C CNN
F 2 "Resistor_THT:R_Axial_DIN0207_L6.3mm_D2.5mm_P10.16mm_Horizontal" V 1980 4300 50  0001 C CNN
F 3 "~" H 2050 4300 50  0001 C CNN
	1    2050 4300
	0    1    1    0   
$EndComp
Wire Wire Line
	1650 4000 1650 4300
Wire Wire Line
	1650 4300 1900 4300
Connection ~ 1650 4000
Wire Wire Line
	1650 4000 1450 4000
$Comp
L Device:R R45
U 1 1 5E31E9BE
P 2850 4150
F 0 "R45" V 2750 4100 50  0000 C CNN
F 1 "10K" V 2850 4150 50  0000 C CNN
F 2 "Resistor_THT:R_Axial_DIN0207_L6.3mm_D2.5mm_P10.16mm_Horizontal" V 2780 4150 50  0001 C CNN
F 3 "~" H 2850 4150 50  0001 C CNN
	1    2850 4150
	-1   0    0    1   
$EndComp
Wire Wire Line
	2850 3900 2850 4000
Wire Wire Line
	2650 3900 2700 3900
Wire Wire Line
	2850 4300 2850 4400
$Comp
L power:GND #PWR0132
U 1 1 5E325FE3
P 2850 4400
F 0 "#PWR0132" H 2850 4150 50  0001 C CNN
F 1 "GND" H 2855 4227 50  0000 C CNN
F 2 "" H 2850 4400 50  0001 C CNN
F 3 "" H 2850 4400 50  0001 C CNN
	1    2850 4400
	1    0    0    -1  
$EndComp
Text Label 2950 3900 0    50   ~ 0
CLOCK
Wire Wire Line
	2950 3900 2850 3900
Connection ~ 2850 3900
Wire Wire Line
	1700 3800 1550 3800
Wire Wire Line
	1550 3800 1550 4350
$Comp
L Device:R R41
U 1 1 5E32E8B3
P 1550 4650
F 0 "R41" V 1450 4600 50  0000 C CNN
F 1 "15k" V 1550 4650 50  0000 C CNN
F 2 "Resistor_THT:R_Axial_DIN0207_L6.3mm_D2.5mm_P10.16mm_Horizontal" V 1480 4650 50  0001 C CNN
F 3 "~" H 1550 4650 50  0001 C CNN
	1    1550 4650
	-1   0    0    1   
$EndComp
$Comp
L Device:C C4
U 1 1 5E32F0EA
P 1200 4650
F 0 "C4" H 950 4700 50  0000 L CNN
F 1 "100nF" H 850 4600 50  0000 L CNN
F 2 "Capacitor_THT:C_Disc_D8.0mm_W2.5mm_P5.00mm" H 1238 4500 50  0001 C CNN
F 3 "~" H 1200 4650 50  0001 C CNN
	1    1200 4650
	1    0    0    -1  
$EndComp
Wire Wire Line
	1550 4350 1200 4350
Wire Wire Line
	1200 4350 1200 4500
Connection ~ 1550 4350
Wire Wire Line
	1550 4350 1550 4500
Wire Wire Line
	1550 4800 1550 4900
Wire Wire Line
	1550 4900 1200 4900
Wire Wire Line
	1200 4900 1200 4800
Wire Wire Line
	1550 4900 1550 5000
Connection ~ 1550 4900
$Comp
L power:GND #PWR0133
U 1 1 5E33D312
P 1550 5000
F 0 "#PWR0133" H 1550 4750 50  0001 C CNN
F 1 "GND" H 1555 4827 50  0000 C CNN
F 2 "" H 1550 5000 50  0001 C CNN
F 3 "" H 1550 5000 50  0001 C CNN
	1    1550 5000
	1    0    0    -1  
$EndComp
$Comp
L Device:R R40
U 1 1 5E33DBC6
P 1550 3450
F 0 "R40" V 1450 3400 50  0000 C CNN
F 1 "68k" V 1550 3450 50  0000 C CNN
F 2 "Resistor_THT:R_Axial_DIN0207_L6.3mm_D2.5mm_P10.16mm_Horizontal" V 1480 3450 50  0001 C CNN
F 3 "~" H 1550 3450 50  0001 C CNN
	1    1550 3450
	-1   0    0    1   
$EndComp
Wire Wire Line
	1550 3800 1550 3600
Connection ~ 1550 3800
$Comp
L power:+12VA #PWR0134
U 1 1 5E34264E
P 1550 3200
F 0 "#PWR0134" H 1550 3050 50  0001 C CNN
F 1 "+12VA" H 1565 3373 50  0000 C CNN
F 2 "" H 1550 3200 50  0001 C CNN
F 3 "" H 1550 3200 50  0001 C CNN
	1    1550 3200
	1    0    0    -1  
$EndComp
Wire Wire Line
	1550 3300 1550 3200
Wire Notes Line
	650  2900 650  5300
Wire Notes Line
	650  5300 3450 5300
Wire Notes Line
	3450 5300 3450 2900
Wire Notes Line
	3450 2900 650  2900
Text Notes 3350 5200 2    50   ~ 0
clock shaping section
$Comp
L Analog_DAC:DAC08 U4
U 1 1 5E356C05
P 2700 7150
F 0 "U4" H 2300 8000 50  0000 C CNN
F 1 "DAC08" H 2350 7900 50  0000 C CNN
F 2 "Package_DIP:DIP-16_W7.62mm_Socket_LongPads" H 2700 7150 50  0001 C CNN
F 3 "http://www.analog.com/media/en/technical-documentation/data-sheets/DAC08.pdf" H 2700 7150 50  0001 C CNN
	1    2700 7150
	1    0    0    -1  
$EndComp
$Comp
L power:+12VA #PWR0135
U 1 1 5E358458
P 2700 6250
F 0 "#PWR0135" H 2700 6100 50  0001 C CNN
F 1 "+12VA" H 2715 6423 50  0000 C CNN
F 2 "" H 2700 6250 50  0001 C CNN
F 3 "" H 2700 6250 50  0001 C CNN
	1    2700 6250
	1    0    0    -1  
$EndComp
Wire Wire Line
	2700 6350 2700 6300
Wire Wire Line
	2700 7950 2700 8050
$Comp
L power:-12VA #PWR0136
U 1 1 5E36228A
P 2700 8100
F 0 "#PWR0136" H 2700 7950 50  0001 C CNN
F 1 "-12VA" H 2715 8273 50  0000 C CNN
F 2 "" H 2700 8100 50  0001 C CNN
F 3 "" H 2700 8100 50  0001 C CNN
	1    2700 8100
	-1   0    0    1   
$EndComp
Text Label 2100 7350 2    50   ~ 0
GATE_1_BOTTOM
Text Label 2100 7250 2    50   ~ 0
GATE_2_BOTTOM
Text Label 2100 7150 2    50   ~ 0
GATE_3_BOTTOM
Text Label 2100 7050 2    50   ~ 0
GATE_4_BOTTOM
Text Label 2100 6950 2    50   ~ 0
GATE_5_BOTTOM
Text Label 2100 6850 2    50   ~ 0
GATE_6_BOTTOM
Text Label 2100 6750 2    50   ~ 0
GATE_7_BOTTOM
Text Label 2100 6650 2    50   ~ 0
GATE_8_BOTTOM
$Comp
L Device:C C7
U 1 1 5E368A96
P 2000 7850
F 0 "C7" H 2115 7896 50  0000 L CNN
F 1 "10nF" H 2115 7805 50  0000 L CNN
F 2 "Capacitor_THT:C_Disc_D8.0mm_W2.5mm_P5.00mm" H 2038 7700 50  0001 C CNN
F 3 "~" H 2000 7850 50  0001 C CNN
	1    2000 7850
	1    0    0    -1  
$EndComp
Wire Wire Line
	2100 7650 2000 7650
Wire Wire Line
	2000 7650 2000 7700
Wire Wire Line
	2000 8000 2000 8050
Wire Wire Line
	2000 8050 2700 8050
Connection ~ 2700 8050
Wire Wire Line
	2700 8050 2700 8100
$Comp
L power:+12VA #PWR0137
U 1 1 5E379C14
P 4700 3200
F 0 "#PWR0137" H 4700 3050 50  0001 C CNN
F 1 "+12VA" H 4715 3373 50  0000 C CNN
F 2 "" H 4700 3200 50  0001 C CNN
F 3 "" H 4700 3200 50  0001 C CNN
	1    4700 3200
	1    0    0    -1  
$EndComp
$Comp
L power:-12VA #PWR0138
U 1 1 5E379E27
P 4700 4100
F 0 "#PWR0138" H 4700 3950 50  0001 C CNN
F 1 "-12VA" H 4715 4273 50  0000 C CNN
F 2 "" H 4700 4100 50  0001 C CNN
F 3 "" H 4700 4100 50  0001 C CNN
	1    4700 4100
	-1   0    0    1   
$EndComp
Wire Wire Line
	4700 3200 4700 3300
Wire Wire Line
	4700 3950 4700 4100
$Comp
L Device:C C12
U 1 1 5E385548
P 4300 3500
F 0 "C12" H 4050 3550 50  0000 L CNN
F 1 "100nF" H 3950 3450 50  0000 L CNN
F 2 "Capacitor_THT:C_Disc_D8.0mm_W2.5mm_P5.00mm" H 4338 3350 50  0001 C CNN
F 3 "~" H 4300 3500 50  0001 C CNN
	1    4300 3500
	1    0    0    -1  
$EndComp
$Comp
L Device:C C13
U 1 1 5E385790
P 4300 3900
F 0 "C13" H 4050 3950 50  0000 L CNN
F 1 "100nF" H 3950 3850 50  0000 L CNN
F 2 "Capacitor_THT:C_Disc_D8.0mm_W2.5mm_P5.00mm" H 4338 3750 50  0001 C CNN
F 3 "~" H 4300 3900 50  0001 C CNN
	1    4300 3900
	1    0    0    -1  
$EndComp
Wire Wire Line
	4300 3350 4300 3300
Wire Wire Line
	4300 3300 4700 3300
Connection ~ 4700 3300
Wire Wire Line
	4700 3300 4700 3350
Wire Wire Line
	4300 3750 4300 3700
Wire Wire Line
	4300 4050 4300 4100
Wire Wire Line
	4300 4100 4700 4100
Connection ~ 4700 4100
$Comp
L power:GND #PWR0139
U 1 1 5E396DB2
P 3750 3800
F 0 "#PWR0139" H 3750 3550 50  0001 C CNN
F 1 "GND" H 3755 3627 50  0000 C CNN
F 2 "" H 3750 3800 50  0001 C CNN
F 3 "" H 3750 3800 50  0001 C CNN
	1    3750 3800
	1    0    0    -1  
$EndComp
Wire Wire Line
	4300 3700 3750 3700
Wire Wire Line
	3750 3700 3750 3800
Connection ~ 4300 3700
Wire Wire Line
	4300 3700 4300 3650
$Comp
L Device:R R47
U 1 1 5E3A724B
P 3700 8000
F 0 "R47" V 3600 7950 50  0000 C CNN
F 1 "1.3k" V 3700 8000 50  0000 C CNN
F 2 "Resistor_THT:R_Axial_DIN0207_L6.3mm_D2.5mm_P10.16mm_Horizontal" V 3630 8000 50  0001 C CNN
F 3 "~" H 3700 8000 50  0001 C CNN
	1    3700 8000
	0    1    1    0   
$EndComp
$Comp
L Device:R R49
U 1 1 5E3A7C49
P 4050 7800
F 0 "R49" V 3950 7750 50  0000 C CNN
F 1 "3.3k" V 4050 7800 50  0000 C CNN
F 2 "Resistor_THT:R_Axial_DIN0207_L6.3mm_D2.5mm_P10.16mm_Horizontal" V 3980 7800 50  0001 C CNN
F 3 "~" H 4050 7800 50  0001 C CNN
	1    4050 7800
	-1   0    0    1   
$EndComp
$Comp
L power:+12VA #PWR0140
U 1 1 5E3BACCF
P 4050 7600
F 0 "#PWR0140" H 4050 7450 50  0001 C CNN
F 1 "+12VA" H 4065 7773 50  0000 C CNN
F 2 "" H 4050 7600 50  0001 C CNN
F 3 "" H 4050 7600 50  0001 C CNN
	1    4050 7600
	1    0    0    -1  
$EndComp
$Comp
L Device:R R48
U 1 1 5E3BB53F
P 3700 8200
F 0 "R48" V 3600 8150 50  0000 C CNN
F 1 "1.3k" V 3700 8200 50  0000 C CNN
F 2 "Resistor_THT:R_Axial_DIN0207_L6.3mm_D2.5mm_P10.16mm_Horizontal" V 3630 8200 50  0001 C CNN
F 3 "~" H 3700 8200 50  0001 C CNN
	1    3700 8200
	0    1    1    0   
$EndComp
$Comp
L Reference_Voltage:TL431LP D13
U 1 1 5E3C29BA
P 4350 8200
F 0 "D13" V 4396 8131 50  0000 R CNN
F 1 "TL431LP" V 4305 8131 50  0000 R CNN
F 2 "Package_TO_SOT_THT:TO-92_Inline_Wide" H 4350 8050 50  0001 C CIN
F 3 "http://www.ti.com/lit/ds/symlink/tl431.pdf" H 4350 8200 50  0001 C CIN
	1    4350 8200
	0    -1   -1   0   
$EndComp
Wire Wire Line
	4250 8200 4200 8200
Wire Wire Line
	4200 8200 4200 8100
Wire Wire Line
	4200 8100 4350 8100
Connection ~ 4350 8100
Wire Wire Line
	3850 8200 4000 8200
Wire Wire Line
	4000 8200 4000 8350
Wire Wire Line
	4000 8350 4350 8350
Wire Wire Line
	4350 8350 4350 8300
$Comp
L power:GND #PWR0141
U 1 1 5E3D7987
P 4350 8400
F 0 "#PWR0141" H 4350 8150 50  0001 C CNN
F 1 "GND" H 4355 8227 50  0000 C CNN
F 2 "" H 4350 8400 50  0001 C CNN
F 3 "" H 4350 8400 50  0001 C CNN
	1    4350 8400
	1    0    0    -1  
$EndComp
Wire Wire Line
	4350 8350 4350 8400
Connection ~ 4350 8350
Wire Wire Line
	4050 7950 4050 8000
Wire Wire Line
	3850 8000 4050 8000
Wire Wire Line
	4050 7600 4050 7650
Wire Wire Line
	4050 8000 4350 8000
Connection ~ 4050 8000
Wire Wire Line
	4350 8000 4350 8100
$Comp
L power:GND #PWR0142
U 1 1 5E3F5BC9
P 3400 6700
F 0 "#PWR0142" H 3400 6450 50  0001 C CNN
F 1 "GND" H 3405 6527 50  0000 C CNN
F 2 "" H 3400 6700 50  0001 C CNN
F 3 "" H 3400 6700 50  0001 C CNN
	1    3400 6700
	1    0    0    -1  
$EndComp
Wire Wire Line
	3300 6650 3400 6650
Wire Wire Line
	3400 6650 3400 6700
Wire Wire Line
	3300 7350 3500 7350
Wire Wire Line
	3500 7350 3500 8000
Wire Wire Line
	3500 8000 3550 8000
Wire Wire Line
	3300 7550 3400 7550
Wire Wire Line
	3400 7550 3400 8200
Wire Wire Line
	3400 8200 3550 8200
$Comp
L power:GND #PWR0143
U 1 1 5E423E72
P 3750 7100
F 0 "#PWR0143" H 3750 6850 50  0001 C CNN
F 1 "GND" H 3755 6927 50  0000 C CNN
F 2 "" H 3750 7100 50  0001 C CNN
F 3 "" H 3750 7100 50  0001 C CNN
	1    3750 7100
	1    0    0    -1  
$EndComp
Wire Wire Line
	3800 7000 3750 7000
Wire Wire Line
	3750 7000 3750 7100
Wire Wire Line
	3300 7150 3600 7150
Wire Wire Line
	3600 7150 3600 6800
Wire Wire Line
	3600 6800 3700 6800
Wire Wire Line
	3300 6950 3300 6650
Connection ~ 3300 6650
Wire Wire Line
	3700 6800 3700 6450
Connection ~ 3700 6800
Wire Wire Line
	3700 6800 3800 6800
$Comp
L Device:R R50
U 1 1 5E44EBCD
P 4100 6450
F 0 "R50" V 4000 6400 50  0000 C CNN
F 1 "5.1k" V 4100 6450 50  0000 C CNN
F 2 "Resistor_THT:R_Axial_DIN0207_L6.3mm_D2.5mm_P10.16mm_Horizontal" V 4030 6450 50  0001 C CNN
F 3 "~" H 4100 6450 50  0001 C CNN
	1    4100 6450
	0    1    1    0   
$EndComp
Wire Wire Line
	3700 6450 3950 6450
Wire Wire Line
	4400 6900 4450 6900
Wire Wire Line
	4450 6900 4450 6450
Wire Wire Line
	4450 6450 4250 6450
$Comp
L Device:C C10
U 1 1 5E460F3B
P 4100 6150
F 0 "C10" V 3848 6150 50  0000 C CNN
F 1 "1nF" V 3939 6150 50  0000 C CNN
F 2 "Capacitor_THT:C_Disc_D8.0mm_W2.5mm_P5.00mm" H 4138 6000 50  0001 C CNN
F 3 "~" H 4100 6150 50  0001 C CNN
	1    4100 6150
	0    1    1    0   
$EndComp
Wire Wire Line
	3700 6450 3700 6150
Wire Wire Line
	3700 6150 3950 6150
Connection ~ 3700 6450
Wire Wire Line
	4250 6150 4450 6150
Wire Wire Line
	4450 6150 4450 6450
Connection ~ 4450 6450
Wire Wire Line
	4450 6900 4550 6900
Connection ~ 4450 6900
Text Label 4550 6900 0    50   ~ 0
CV1_BOTTOM
Wire Notes Line
	3550 2900 6300 2900
Wire Notes Line
	6300 2900 6300 5300
Wire Notes Line
	6300 5300 3550 5300
Wire Notes Line
	3550 5300 3550 2900
Wire Notes Line
	650  5400 6300 5400
Wire Notes Line
	6300 5400 6300 9200
Wire Notes Line
	6300 9200 650  9200
Wire Notes Line
	650  9200 650  5400
Text Notes 750  5550 0    50   ~ 0
CV output
$Comp
L 4xxx_IEEE:4015 U5
U 1 1 5E311BD0
P 8450 4500
F 0 "U5" H 8250 4900 50  0000 C CNN
F 1 "4015" H 8250 4800 50  0000 C CNN
F 2 "Package_DIP:DIP-16_W7.62mm_Socket_LongPads" H 8450 4500 50  0001 C CNN
F 3 "" H 8450 4500 50  0001 C CNN
	1    8450 4500
	1    0    0    -1  
$EndComp
$Comp
L 4xxx_IEEE:4015 U5
U 2 1 5E3125D5
P 8450 5500
F 0 "U5" H 8450 5900 50  0000 C CNN
F 1 "4015" H 8450 5800 50  0000 C CNN
F 2 "Package_DIP:DIP-16_W7.62mm_Socket_LongPads" H 8450 5500 50  0001 C CNN
F 3 "" H 8450 5500 50  0001 C CNN
	2    8450 5500
	1    0    0    -1  
$EndComp
Wire Wire Line
	7900 5350 7850 5350
Wire Wire Line
	7900 4350 7850 4350
Text Label 7850 4350 2    50   ~ 0
CLOCK_BUFF
Text Label 7850 5350 2    50   ~ 0
CLOCK_BUFF
$Comp
L power:GND #PWR0144
U 1 1 5E3288AF
P 7850 4700
F 0 "#PWR0144" H 7850 4450 50  0001 C CNN
F 1 "GND" H 7855 4527 50  0000 C CNN
F 2 "" H 7850 4700 50  0001 C CNN
F 3 "" H 7850 4700 50  0001 C CNN
	1    7850 4700
	1    0    0    -1  
$EndComp
Wire Wire Line
	7900 4650 7850 4650
Wire Wire Line
	7850 4650 7850 4700
$Comp
L power:GND #PWR0145
U 1 1 5E332197
P 7850 5700
F 0 "#PWR0145" H 7850 5450 50  0001 C CNN
F 1 "GND" H 7855 5527 50  0000 C CNN
F 2 "" H 7850 5700 50  0001 C CNN
F 3 "" H 7850 5700 50  0001 C CNN
	1    7850 5700
	1    0    0    -1  
$EndComp
Wire Wire Line
	7900 5650 7850 5650
Wire Wire Line
	7850 5650 7850 5700
Wire Wire Line
	9000 4650 9000 4950
Wire Wire Line
	7200 5500 7900 5500
Wire Wire Line
	7200 4950 7200 5500
$Comp
L Device:R R53
U 1 1 5E390C8B
P 8100 4950
F 0 "R53" V 8000 4950 50  0000 C CNN
F 1 "10k" V 8100 4950 50  0000 C CNN
F 2 "Resistor_THT:R_Axial_DIN0207_L6.3mm_D2.5mm_P10.16mm_Horizontal" V 8030 4950 50  0001 C CNN
F 3 "~" H 8100 4950 50  0001 C CNN
	1    8100 4950
	0    1    1    0   
$EndComp
Wire Wire Line
	9000 4950 8250 4950
Wire Wire Line
	7950 4950 7200 4950
$Comp
L Device:C C17
U 1 1 5E3A6262
P 6800 5250
F 0 "C17" H 6915 5296 50  0000 L CNN
F 1 "1nF" H 6915 5205 50  0000 L CNN
F 2 "Capacitor_THT:C_Disc_D8.0mm_W2.5mm_P5.00mm" H 6838 5100 50  0001 C CNN
F 3 "~" H 6800 5250 50  0001 C CNN
	1    6800 5250
	1    0    0    -1  
$EndComp
$Comp
L power:GND #PWR0146
U 1 1 5E3A6C61
P 6800 5500
F 0 "#PWR0146" H 6800 5250 50  0001 C CNN
F 1 "GND" H 6805 5327 50  0000 C CNN
F 2 "" H 6800 5500 50  0001 C CNN
F 3 "" H 6800 5500 50  0001 C CNN
	1    6800 5500
	1    0    0    -1  
$EndComp
Wire Wire Line
	6800 5400 6800 5500
Wire Wire Line
	6800 5100 6800 4950
Wire Wire Line
	6800 4950 7200 4950
$Comp
L 4xxx_IEEE:4015 U6
U 1 1 5E3DDC2C
P 8450 6500
F 0 "U6" H 8250 6900 50  0000 C CNN
F 1 "4015" H 8250 6800 50  0000 C CNN
F 2 "Package_DIP:DIP-16_W7.62mm_Socket_LongPads" H 8450 6500 50  0001 C CNN
F 3 "" H 8450 6500 50  0001 C CNN
	1    8450 6500
	1    0    0    -1  
$EndComp
$Comp
L 4xxx_IEEE:4015 U6
U 2 1 5E3DDC32
P 8450 7500
F 0 "U6" H 8450 7900 50  0000 C CNN
F 1 "4015" H 8450 7800 50  0000 C CNN
F 2 "Package_DIP:DIP-16_W7.62mm_Socket_LongPads" H 8450 7500 50  0001 C CNN
F 3 "" H 8450 7500 50  0001 C CNN
	2    8450 7500
	1    0    0    -1  
$EndComp
Wire Wire Line
	7900 7350 7850 7350
Wire Wire Line
	7900 6350 7850 6350
Text Label 7850 6350 2    50   ~ 0
CLOCK_BUFF
Text Label 7850 7350 2    50   ~ 0
CLOCK_BUFF
$Comp
L power:GND #PWR0147
U 1 1 5E3DDC3C
P 7850 6700
F 0 "#PWR0147" H 7850 6450 50  0001 C CNN
F 1 "GND" H 7855 6527 50  0000 C CNN
F 2 "" H 7850 6700 50  0001 C CNN
F 3 "" H 7850 6700 50  0001 C CNN
	1    7850 6700
	1    0    0    -1  
$EndComp
Wire Wire Line
	7900 6650 7850 6650
Wire Wire Line
	7850 6650 7850 6700
$Comp
L power:GND #PWR0148
U 1 1 5E3DDC44
P 7850 7700
F 0 "#PWR0148" H 7850 7450 50  0001 C CNN
F 1 "GND" H 7855 7527 50  0000 C CNN
F 2 "" H 7850 7700 50  0001 C CNN
F 3 "" H 7850 7700 50  0001 C CNN
	1    7850 7700
	1    0    0    -1  
$EndComp
Wire Wire Line
	7900 7650 7850 7650
Wire Wire Line
	7850 7650 7850 7700
Wire Wire Line
	9000 6650 9000 6950
Wire Wire Line
	7200 7500 7900 7500
Connection ~ 9000 6650
Wire Wire Line
	7200 6950 7200 7500
$Comp
L Device:R R55
U 1 1 5E3DDC58
P 8100 6950
F 0 "R55" V 8000 6950 50  0000 C CNN
F 1 "10k" V 8100 6950 50  0000 C CNN
F 2 "Resistor_THT:R_Axial_DIN0207_L6.3mm_D2.5mm_P10.16mm_Horizontal" V 8030 6950 50  0001 C CNN
F 3 "~" H 8100 6950 50  0001 C CNN
	1    8100 6950
	0    1    1    0   
$EndComp
Wire Wire Line
	9000 6950 8250 6950
Wire Wire Line
	7950 6950 7200 6950
$Comp
L Device:C C19
U 1 1 5E3DDC60
P 6800 7250
F 0 "C19" H 6915 7296 50  0000 L CNN
F 1 "1nF" H 6915 7205 50  0000 L CNN
F 2 "Capacitor_THT:C_Disc_D8.0mm_W2.5mm_P5.00mm" H 6838 7100 50  0001 C CNN
F 3 "~" H 6800 7250 50  0001 C CNN
	1    6800 7250
	1    0    0    -1  
$EndComp
$Comp
L power:GND #PWR0149
U 1 1 5E3DDC66
P 6800 7500
F 0 "#PWR0149" H 6800 7250 50  0001 C CNN
F 1 "GND" H 6805 7327 50  0000 C CNN
F 2 "" H 6800 7500 50  0001 C CNN
F 3 "" H 6800 7500 50  0001 C CNN
	1    6800 7500
	1    0    0    -1  
$EndComp
Wire Wire Line
	6800 7400 6800 7500
Wire Wire Line
	6800 7100 6800 6950
Wire Wire Line
	6800 6950 7200 6950
$Comp
L Device:R R54
U 1 1 5E3EAB87
P 8100 5950
F 0 "R54" V 8000 5950 50  0000 C CNN
F 1 "10k" V 8100 5950 50  0000 C CNN
F 2 "Resistor_THT:R_Axial_DIN0207_L6.3mm_D2.5mm_P10.16mm_Horizontal" V 8030 5950 50  0001 C CNN
F 3 "~" H 8100 5950 50  0001 C CNN
	1    8100 5950
	0    1    1    0   
$EndComp
Wire Wire Line
	9000 5650 9000 5950
Wire Wire Line
	9000 5950 8250 5950
Connection ~ 9000 5650
Wire Wire Line
	7950 5950 7200 5950
Wire Wire Line
	7200 5950 7200 6500
Wire Wire Line
	7200 6500 7900 6500
$Comp
L Device:C C18
U 1 1 5E442513
P 6800 6250
F 0 "C18" H 6915 6296 50  0000 L CNN
F 1 "1nF" H 6915 6205 50  0000 L CNN
F 2 "Capacitor_THT:C_Disc_D8.0mm_W2.5mm_P5.00mm" H 6838 6100 50  0001 C CNN
F 3 "~" H 6800 6250 50  0001 C CNN
	1    6800 6250
	1    0    0    -1  
$EndComp
$Comp
L power:GND #PWR0150
U 1 1 5E442519
P 6800 6500
F 0 "#PWR0150" H 6800 6250 50  0001 C CNN
F 1 "GND" H 6805 6327 50  0000 C CNN
F 2 "" H 6800 6500 50  0001 C CNN
F 3 "" H 6800 6500 50  0001 C CNN
	1    6800 6500
	1    0    0    -1  
$EndComp
Wire Wire Line
	6800 6400 6800 6500
Wire Wire Line
	6800 6100 6800 5950
Wire Wire Line
	6800 5950 7200 5950
NoConn ~ 9000 6350
NoConn ~ 9000 6450
NoConn ~ 9000 6550
NoConn ~ 9000 7350
NoConn ~ 9000 7450
NoConn ~ 9000 7550
Wire Wire Line
	7900 4500 7850 4500
Text Label 7850 4500 2    50   ~ 0
SEQUENCE_START
$Comp
L power:GND #PWR0151
U 1 1 5E534226
P 8150 2550
F 0 "#PWR0151" H 8150 2300 50  0001 C CNN
F 1 "GND" H 8155 2377 50  0000 C CNN
F 2 "" H 8150 2550 50  0001 C CNN
F 3 "" H 8150 2550 50  0001 C CNN
	1    8150 2550
	1    0    0    -1  
$EndComp
Wire Wire Line
	8200 2500 8150 2500
Wire Wire Line
	8150 2500 8150 2550
Wire Wire Line
	8200 2300 8100 2300
$Comp
L Device:R R52
U 1 1 5E54F328
P 8450 2000
F 0 "R52" V 8350 2000 50  0000 C CNN
F 1 "68k" V 8450 2000 50  0000 C CNN
F 2 "Resistor_THT:R_Axial_DIN0207_L6.3mm_D2.5mm_P10.16mm_Horizontal" V 8380 2000 50  0001 C CNN
F 3 "~" H 8450 2000 50  0001 C CNN
	1    8450 2000
	0    1    1    0   
$EndComp
Wire Wire Line
	8300 2000 8100 2000
Wire Wire Line
	8100 2000 8100 2300
Connection ~ 8100 2300
Wire Wire Line
	8100 2300 7850 2300
Wire Wire Line
	8600 2000 8900 2000
Wire Wire Line
	8900 2000 8900 2400
Wire Wire Line
	8900 2400 8800 2400
Wire Wire Line
	9100 2400 8900 2400
Connection ~ 8900 2400
Wire Wire Line
	9100 2600 8900 2600
Wire Wire Line
	8900 2600 8900 2900
Wire Wire Line
	8900 2900 7850 2900
Text Label 7850 2900 2    50   ~ 0
NOISE_BOTTOM
Text Label 7850 2300 2    50   ~ 0
SEQ_CONTROL_BOTTOM
$Comp
L Device:R R56
U 1 1 5E5B82B2
P 9950 2500
F 0 "R56" V 9850 2500 50  0000 C CNN
F 1 "100k" V 9950 2500 50  0000 C CNN
F 2 "Resistor_THT:R_Axial_DIN0207_L6.3mm_D2.5mm_P10.16mm_Horizontal" V 9880 2500 50  0001 C CNN
F 3 "~" H 9950 2500 50  0001 C CNN
	1    9950 2500
	0    1    1    0   
$EndComp
Wire Wire Line
	9800 2500 9700 2500
$Comp
L power:+12VA #PWR0152
U 1 1 5E5C84E8
P 5950 4100
F 0 "#PWR0152" H 5950 3950 50  0001 C CNN
F 1 "+12VA" H 5965 4273 50  0000 C CNN
F 2 "" H 5950 4100 50  0001 C CNN
F 3 "" H 5950 4100 50  0001 C CNN
	1    5950 4100
	1    0    0    -1  
$EndComp
$Comp
L power:-12VA #PWR0153
U 1 1 5E5C84EE
P 5950 5000
F 0 "#PWR0153" H 5950 4850 50  0001 C CNN
F 1 "-12VA" H 5965 5173 50  0000 C CNN
F 2 "" H 5950 5000 50  0001 C CNN
F 3 "" H 5950 5000 50  0001 C CNN
	1    5950 5000
	-1   0    0    1   
$EndComp
Wire Wire Line
	5950 4100 5950 4200
Wire Wire Line
	5950 4850 5950 5000
$Comp
L Device:C C15
U 1 1 5E5C84F6
P 5550 4400
F 0 "C15" H 5300 4450 50  0000 L CNN
F 1 "100nF" H 5200 4350 50  0000 L CNN
F 2 "Capacitor_THT:C_Disc_D8.0mm_W2.5mm_P5.00mm" H 5588 4250 50  0001 C CNN
F 3 "~" H 5550 4400 50  0001 C CNN
	1    5550 4400
	1    0    0    -1  
$EndComp
$Comp
L Device:C C16
U 1 1 5E5C84FC
P 5550 4800
F 0 "C16" H 5300 4850 50  0000 L CNN
F 1 "100nF" H 5200 4750 50  0000 L CNN
F 2 "Capacitor_THT:C_Disc_D8.0mm_W2.5mm_P5.00mm" H 5588 4650 50  0001 C CNN
F 3 "~" H 5550 4800 50  0001 C CNN
	1    5550 4800
	1    0    0    -1  
$EndComp
Wire Wire Line
	5550 4250 5550 4200
Wire Wire Line
	5550 4200 5950 4200
Connection ~ 5950 4200
Wire Wire Line
	5950 4200 5950 4250
Wire Wire Line
	5550 4650 5550 4600
Wire Wire Line
	5550 4950 5550 5000
Wire Wire Line
	5550 5000 5950 5000
Connection ~ 5950 5000
$Comp
L power:GND #PWR0154
U 1 1 5E5C850A
P 5000 4700
F 0 "#PWR0154" H 5000 4450 50  0001 C CNN
F 1 "GND" H 5005 4527 50  0000 C CNN
F 2 "" H 5000 4700 50  0001 C CNN
F 3 "" H 5000 4700 50  0001 C CNN
	1    5000 4700
	1    0    0    -1  
$EndComp
Wire Wire Line
	5550 4600 5000 4600
Wire Wire Line
	5000 4600 5000 4700
Connection ~ 5550 4600
Wire Wire Line
	5550 4600 5550 4550
$Comp
L 4xxx:4016 U7
U 1 1 5E60BE52
P 10950 1700
F 0 "U7" H 10950 1450 50  0000 C CNN
F 1 "4016" H 10950 1550 50  0000 C CNN
F 2 "Package_DIP:DIP-14_W7.62mm_Socket_LongPads" H 10950 1700 50  0001 C CNN
F 3 "http://www.ti.com/lit/ds/symlink/cd4016b.pdf" H 10950 1700 50  0001 C CNN
	1    10950 1700
	1    0    0    1   
$EndComp
$Comp
L 4xxx:4016 U7
U 2 1 5E60BF86
P 12000 2000
F 0 "U7" H 12000 1750 50  0000 C CNN
F 1 "4016" H 12000 1850 50  0000 C CNN
F 2 "Package_DIP:DIP-14_W7.62mm_Socket_LongPads" H 12000 2000 50  0001 C CNN
F 3 "http://www.ti.com/lit/ds/symlink/cd4016b.pdf" H 12000 2000 50  0001 C CNN
	2    12000 2000
	-1   0    0    1   
$EndComp
$Comp
L 4xxx:4016 U7
U 3 1 5E60C08D
P 10950 2650
F 0 "U7" H 10950 2400 50  0000 C CNN
F 1 "4016" H 10950 2500 50  0000 C CNN
F 2 "Package_DIP:DIP-14_W7.62mm_Socket_LongPads" H 10950 2650 50  0001 C CNN
F 3 "http://www.ti.com/lit/ds/symlink/cd4016b.pdf" H 10950 2650 50  0001 C CNN
	3    10950 2650
	-1   0    0    1   
$EndComp
$Comp
L 4xxx:4016 U7
U 5 1 5E60C2E0
P 15000 1500
F 0 "U7" H 15230 1546 50  0000 L CNN
F 1 "4016" H 15230 1455 50  0000 L CNN
F 2 "Package_DIP:DIP-14_W7.62mm_Socket_LongPads" H 15000 1500 50  0001 C CNN
F 3 "http://www.ti.com/lit/ds/symlink/cd4016b.pdf" H 15000 1500 50  0001 C CNN
	5    15000 1500
	1    0    0    -1  
$EndComp
Wire Wire Line
	10100 2500 10100 2100
Connection ~ 10100 2500
Wire Wire Line
	10950 2950 10950 3000
Wire Wire Line
	10950 3000 10100 3000
Wire Wire Line
	10100 2500 10100 3000
Wire Wire Line
	10100 2100 10950 2100
Wire Wire Line
	10950 2100 10950 2000
Text Label 10100 1700 2    50   ~ 0
SEQUENCE_END_BOTTOM
Wire Wire Line
	10100 1700 10500 1700
Connection ~ 10500 1700
Wire Wire Line
	10500 1700 10650 1700
$Comp
L Device:R R59
U 1 1 5E68CC86
P 13200 2400
F 0 "R59" V 13100 2400 50  0000 C CNN
F 1 "10k" V 13200 2400 50  0000 C CNN
F 2 "Resistor_THT:R_Axial_DIN0207_L6.3mm_D2.5mm_P10.16mm_Horizontal" V 13130 2400 50  0001 C CNN
F 3 "~" H 13200 2400 50  0001 C CNN
	1    13200 2400
	0    1    1    0   
$EndComp
Wire Wire Line
	13050 2400 12900 2400
Wire Wire Line
	11250 1700 12900 1700
Wire Wire Line
	12900 1700 12900 2400
$Comp
L 4xxx:4016 U7
U 4 1 5E60C1A1
P 12000 2850
F 0 "U7" H 12000 2600 50  0000 C CNN
F 1 "4016" H 12000 2700 50  0000 C CNN
F 2 "Package_DIP:DIP-14_W7.62mm_Socket_LongPads" H 12000 2850 50  0001 C CNN
F 3 "http://www.ti.com/lit/ds/symlink/cd4016b.pdf" H 12000 2850 50  0001 C CNN
	4    12000 2850
	1    0    0    1   
$EndComp
Wire Wire Line
	12300 2850 12900 2850
Wire Wire Line
	12900 2850 12900 2400
Connection ~ 12900 2400
Wire Wire Line
	12350 2000 12350 2500
Wire Wire Line
	12350 2500 11650 2500
Wire Wire Line
	11650 2500 11650 2850
Wire Wire Line
	11650 2850 11700 2850
Wire Wire Line
	12350 2000 12300 2000
Wire Wire Line
	11700 2000 11600 2000
Wire Wire Line
	11600 2000 11600 2050
$Comp
L power:GND #PWR0155
U 1 1 5E745B2C
P 11600 2050
F 0 "#PWR0155" H 11600 1800 50  0001 C CNN
F 1 "GND" H 11605 1877 50  0000 C CNN
F 2 "" H 11600 2050 50  0001 C CNN
F 3 "" H 11600 2050 50  0001 C CNN
	1    11600 2050
	1    0    0    -1  
$EndComp
$Comp
L Device:R R58
U 1 1 5E7465AD
P 12350 1450
F 0 "R58" V 12250 1450 50  0000 C CNN
F 1 "10k" V 12350 1450 50  0000 C CNN
F 2 "Resistor_THT:R_Axial_DIN0207_L6.3mm_D2.5mm_P10.16mm_Horizontal" V 12280 1450 50  0001 C CNN
F 3 "~" H 12350 1450 50  0001 C CNN
	1    12350 1450
	-1   0    0    1   
$EndComp
Wire Wire Line
	12350 2000 12350 1600
Connection ~ 12350 2000
$Comp
L power:+12VA #PWR0156
U 1 1 5E7595DC
P 12350 1250
F 0 "#PWR0156" H 12350 1100 50  0001 C CNN
F 1 "+12VA" H 12365 1423 50  0000 C CNN
F 2 "" H 12350 1250 50  0001 C CNN
F 3 "" H 12350 1250 50  0001 C CNN
	1    12350 1250
	1    0    0    -1  
$EndComp
Wire Wire Line
	12350 1300 12350 1250
$Comp
L Device:R R57
U 1 1 5E76D626
P 11400 1450
F 0 "R57" V 11300 1450 50  0000 C CNN
F 1 "10k" V 11400 1450 50  0000 C CNN
F 2 "Resistor_THT:R_Axial_DIN0207_L6.3mm_D2.5mm_P10.16mm_Horizontal" V 11330 1450 50  0001 C CNN
F 3 "~" H 11400 1450 50  0001 C CNN
	1    11400 1450
	-1   0    0    1   
$EndComp
$Comp
L power:+12VA #PWR0157
U 1 1 5E76D62D
P 11400 1250
F 0 "#PWR0157" H 11400 1100 50  0001 C CNN
F 1 "+12VA" H 11415 1423 50  0000 C CNN
F 2 "" H 11400 1250 50  0001 C CNN
F 3 "" H 11400 1250 50  0001 C CNN
	1    11400 1250
	1    0    0    -1  
$EndComp
Wire Wire Line
	11400 1300 11400 1250
Wire Wire Line
	11250 2650 11400 2650
Wire Wire Line
	11400 1600 11400 2650
Wire Wire Line
	11400 2650 11400 3200
Wire Wire Line
	11400 3200 12000 3200
Wire Wire Line
	12000 3200 12000 3150
Connection ~ 11400 2650
Wire Wire Line
	10650 2650 10550 2650
Wire Wire Line
	10550 2650 10550 2750
$Comp
L power:GND #PWR0158
U 1 1 5E7A8381
P 10550 2750
F 0 "#PWR0158" H 10550 2500 50  0001 C CNN
F 1 "GND" H 10555 2577 50  0000 C CNN
F 2 "" H 10550 2750 50  0001 C CNN
F 3 "" H 10550 2750 50  0001 C CNN
	1    10550 2750
	1    0    0    -1  
$EndComp
Wire Wire Line
	12000 2300 12000 2350
Wire Wire Line
	12000 2350 10500 2350
Wire Wire Line
	10500 1700 10500 2350
$Comp
L Device:C C22
U 1 1 5E89C429
P 14600 1500
F 0 "C22" H 14350 1550 50  0000 L CNN
F 1 "100nF" H 14250 1450 50  0000 L CNN
F 2 "Capacitor_THT:C_Disc_D8.0mm_W2.5mm_P5.00mm" H 14638 1350 50  0001 C CNN
F 3 "~" H 14600 1500 50  0001 C CNN
	1    14600 1500
	1    0    0    -1  
$EndComp
Wire Wire Line
	15000 1000 14800 1000
Wire Wire Line
	14600 1000 14600 1350
Wire Wire Line
	14600 1650 14600 2000
Wire Wire Line
	14600 2000 14800 2000
$Comp
L power:GND #PWR0159
U 1 1 5E8C4B91
P 14800 2050
F 0 "#PWR0159" H 14800 1800 50  0001 C CNN
F 1 "GND" H 14805 1877 50  0000 C CNN
F 2 "" H 14800 2050 50  0001 C CNN
F 3 "" H 14800 2050 50  0001 C CNN
	1    14800 2050
	1    0    0    -1  
$EndComp
$Comp
L power:+12VA #PWR0160
U 1 1 5E8C4C32
P 14800 950
F 0 "#PWR0160" H 14800 800 50  0001 C CNN
F 1 "+12VA" H 14815 1123 50  0000 C CNN
F 2 "" H 14800 950 50  0001 C CNN
F 3 "" H 14800 950 50  0001 C CNN
	1    14800 950 
	1    0    0    -1  
$EndComp
Wire Wire Line
	14800 1000 14800 950 
Connection ~ 14800 1000
Wire Wire Line
	14800 1000 14600 1000
Wire Wire Line
	14800 2050 14800 2000
Connection ~ 14800 2000
Wire Wire Line
	14800 2000 15000 2000
$Comp
L power:GND #PWR0163
U 1 1 5E9451D6
P 8450 7850
F 0 "#PWR0163" H 8450 7600 50  0001 C CNN
F 1 "GND" H 8455 7677 50  0000 C CNN
F 2 "" H 8450 7850 50  0001 C CNN
F 3 "" H 8450 7850 50  0001 C CNN
	1    8450 7850
	1    0    0    -1  
$EndComp
Wire Wire Line
	7350 8300 7350 8350
$Comp
L power:+12VA #PWR0164
U 1 1 5E9B1195
P 7350 8300
F 0 "#PWR0164" H 7350 8150 50  0001 C CNN
F 1 "+12VA" H 7365 8473 50  0000 C CNN
F 2 "" H 7350 8300 50  0001 C CNN
F 3 "" H 7350 8300 50  0001 C CNN
	1    7350 8300
	1    0    0    -1  
$EndComp
$Comp
L Device:C C21
U 1 1 5E364460
P 13450 2650
F 0 "C21" H 13200 2700 50  0000 L CNN
F 1 "1nF" H 13100 2600 50  0000 L CNN
F 2 "Capacitor_THT:C_Disc_D8.0mm_W2.5mm_P5.00mm" H 13488 2500 50  0001 C CNN
F 3 "~" H 13450 2650 50  0001 C CNN
	1    13450 2650
	1    0    0    -1  
$EndComp
Wire Wire Line
	13350 2400 13450 2400
Wire Wire Line
	13450 2400 13450 2500
$Comp
L power:GND #PWR0165
U 1 1 5E37B697
P 13450 2900
F 0 "#PWR0165" H 13450 2650 50  0001 C CNN
F 1 "GND" H 13455 2727 50  0000 C CNN
F 2 "" H 13450 2900 50  0001 C CNN
F 3 "" H 13450 2900 50  0001 C CNN
	1    13450 2900
	1    0    0    -1  
$EndComp
Wire Wire Line
	13450 2800 13450 2900
Text Label 13550 2400 0    50   ~ 0
SEQUENCE_START
Wire Wire Line
	13450 2400 13550 2400
Connection ~ 13450 2400
Wire Notes Line
	6400 600  6400 3600
Wire Notes Line
	6400 3600 15800 3600
Wire Notes Line
	15800 3600 15800 600 
Wire Notes Line
	15800 600  6400 600 
Text Notes 15750 3550 2    50   ~ 0
sequence length, randomness and feedback control
Wire Wire Line
	9000 4350 9950 4350
Wire Wire Line
	9750 4450 9750 4800
Text Label 10300 4200 2    50   ~ 0
CLOCK
Wire Wire Line
	10500 4500 10300 4500
Wire Wire Line
	10300 4500 10300 4200
Wire Wire Line
	10500 4650 9950 4650
Wire Wire Line
	9950 4650 9950 4350
Wire Wire Line
	10500 4800 9750 4800
Wire Wire Line
	10500 4950 9550 4950
Wire Wire Line
	9000 4550 9550 4550
Wire Wire Line
	9550 4550 9550 4950
Connection ~ 9000 4650
Wire Wire Line
	9350 4650 9350 5100
Wire Wire Line
	9350 5100 10500 5100
Wire Wire Line
	9000 4650 9350 4650
Wire Wire Line
	9350 5350 9350 5250
Wire Wire Line
	9350 5250 10500 5250
Wire Wire Line
	9000 5350 9350 5350
Wire Wire Line
	9550 5450 9550 5400
Wire Wire Line
	9550 5400 10500 5400
Wire Wire Line
	9000 5450 9550 5450
Wire Wire Line
	9000 5550 10500 5550
Wire Wire Line
	9550 5650 9550 5700
Wire Wire Line
	9550 5700 10500 5700
Wire Wire Line
	9000 5650 9550 5650
Text Label 12200 4600 0    50   ~ 0
PULSE_1_BOTTOM
Text Label 12200 4750 0    50   ~ 0
PULSE_2_BOTTOM
Text Label 12200 4900 0    50   ~ 0
PULSE_3_BOTTOM
Text Label 13550 2150 0    50   ~ 0
WR_SW_BOTTOM
Wire Wire Line
	13550 2150 13450 2150
Wire Wire Line
	13450 2150 13450 2400
Wire Wire Line
	9000 4450 9750 4450
Text Label 12200 5050 0    50   ~ 0
PULSE_4_BOTTOM
Text Label 12200 5200 0    50   ~ 0
PULSE_5_BOTTOM
Text Label 12200 5350 0    50   ~ 0
PULSE_6_BOTTOM
Text Label 12200 5500 0    50   ~ 0
PULSE_7_BOTTOM
Text Label 12200 5650 0    50   ~ 0
PULSE_8_BOTTOM
Text Label 12200 5800 0    50   ~ 0
PULSE_12_BOTTOM
Text Label 12200 5950 0    50   ~ 0
PULSE_47_BOTTOM
Text Label 12200 6100 0    50   ~ 0
PULSE_24_BOTTOM
Wire Wire Line
	12000 5800 12200 5800
Wire Wire Line
	12000 5950 12200 5950
Wire Wire Line
	12000 6100 12200 6100
Wire Wire Line
	12200 5650 12000 5650
Wire Wire Line
	12000 5500 12200 5500
Wire Wire Line
	12000 5350 12200 5350
Wire Wire Line
	12000 5200 12200 5200
Wire Wire Line
	12000 5050 12200 5050
Wire Wire Line
	12000 4900 12200 4900
Wire Wire Line
	12000 4750 12200 4750
Wire Wire Line
	12000 4600 12200 4600
Wire Notes Line
	650  9300 650  11050
$Comp
L Amplifier_Operational:TL072 U2
U 3 1 5E7FA172
P 4800 3650
F 0 "U2" H 4758 3696 50  0000 L CNN
F 1 "TL072" H 4758 3605 50  0000 L CNN
F 2 "Package_DIP:DIP-8_W7.62mm_Socket_LongPads" H 4800 3650 50  0001 C CNN
F 3 "http://www.ti.com/lit/ds/symlink/tl071.pdf" H 4800 3650 50  0001 C CNN
	3    4800 3650
	1    0    0    -1  
$EndComp
$Comp
L Amplifier_Operational:TL072 U2
U 1 1 5E8C084E
P 4100 6900
F 0 "U2" H 4100 7200 50  0000 C CNN
F 1 "TL072" H 4100 7100 50  0000 C CNN
F 2 "Package_DIP:DIP-8_W7.62mm_Socket_LongPads" H 4100 6900 50  0001 C CNN
F 3 "http://www.ti.com/lit/ds/symlink/tl071.pdf" H 4100 6900 50  0001 C CNN
	1    4100 6900
	1    0    0    1   
$EndComp
$Comp
L Amplifier_Operational:TL072 U2
U 2 1 5E8C0B89
P 2000 3900
F 0 "U2" H 2000 3600 50  0000 C CNN
F 1 "TL072" H 2000 3700 50  0000 C CNN
F 2 "Package_DIP:DIP-8_W7.62mm_Socket_LongPads" H 2000 3900 50  0001 C CNN
F 3 "http://www.ti.com/lit/ds/symlink/tl071.pdf" H 2000 3900 50  0001 C CNN
	2    2000 3900
	1    0    0    1   
$EndComp
$Comp
L Device:C C9
U 1 1 5E9E3EFB
P 3300 6250
F 0 "C9" H 3415 6296 50  0000 L CNN
F 1 "100nF" H 3415 6205 50  0000 L CNN
F 2 "Capacitor_THT:C_Disc_D8.0mm_W2.5mm_P5.00mm" H 3338 6100 50  0001 C CNN
F 3 "~" H 3300 6250 50  0001 C CNN
	1    3300 6250
	1    0    0    -1  
$EndComp
Wire Wire Line
	2700 6300 3050 6300
Wire Wire Line
	3050 6300 3050 6050
Wire Wire Line
	3050 6050 3300 6050
Wire Wire Line
	3300 6050 3300 6100
Connection ~ 2700 6300
Wire Wire Line
	2700 6300 2700 6250
Wire Wire Line
	3300 6400 3300 6650
$Comp
L Device:C C5
U 1 1 5EA5B2B4
P 1450 7850
F 0 "C5" H 1565 7896 50  0000 L CNN
F 1 "100nF" H 1565 7805 50  0000 L CNN
F 2 "Capacitor_THT:C_Disc_D8.0mm_W2.5mm_P5.00mm" H 1488 7700 50  0001 C CNN
F 3 "~" H 1450 7850 50  0001 C CNN
	1    1450 7850
	1    0    0    -1  
$EndComp
Wire Wire Line
	2000 8050 1450 8050
Wire Wire Line
	1450 8050 1450 8000
Connection ~ 2000 8050
$Comp
L power:GND #PWR0171
U 1 1 5EA7A048
P 1250 7500
F 0 "#PWR0171" H 1250 7250 50  0001 C CNN
F 1 "GND" H 1255 7327 50  0000 C CNN
F 2 "" H 1250 7500 50  0001 C CNN
F 3 "" H 1250 7500 50  0001 C CNN
	1    1250 7500
	1    0    0    -1  
$EndComp
Wire Wire Line
	1250 7500 1250 7450
Wire Wire Line
	1250 7450 1450 7450
Wire Wire Line
	1450 7450 1450 7700
Wire Notes Line
	9200 9300 9200 11050
Wire Notes Line
	650  11050 9200 11050
Wire Notes Line
	650  9300 9200 9300
Wire Notes Line
	6400 3700 6400 9200
Wire Notes Line
	6400 9200 13050 9200
Wire Notes Line
	13050 9200 13050 3700
Wire Notes Line
	13050 3700 6400 3700
Text Notes 6450 3800 0    50   ~ 0
shift registers
Wire Notes Line
	15800 3700 15800 6000
Wire Notes Line
	15800 6000 13150 6000
Wire Notes Line
	13150 6000 13150 3700
Wire Notes Line
	13150 3700 15800 3700
Text Notes 15250 5950 0    50   ~ 0
power supply
Text Notes 9800 10650 0    276  Italic 55
Bottom\nboard
$Comp
L Amplifier_Operational:TL074 U3
U 1 1 5EEAC4A4
P 2550 1850
F 0 "U3" H 2450 2250 50  0000 C CNN
F 1 "TL074" H 2500 2150 50  0000 C CNN
F 2 "Package_DIP:DIP-14_W7.62mm_Socket_LongPads" H 2500 1950 50  0001 C CNN
F 3 "http://www.ti.com/lit/ds/symlink/tl071.pdf" H 2600 2050 50  0001 C CNN
	1    2550 1850
	1    0    0    1   
$EndComp
$Comp
L Amplifier_Operational:TL074 U3
U 2 1 5EEAC5DE
P 4200 1950
F 0 "U3" H 4100 2350 50  0000 C CNN
F 1 "TL074" H 4150 2250 50  0000 C CNN
F 2 "Package_DIP:DIP-14_W7.62mm_Socket_LongPads" H 4150 2050 50  0001 C CNN
F 3 "http://www.ti.com/lit/ds/symlink/tl071.pdf" H 4250 2150 50  0001 C CNN
	2    4200 1950
	1    0    0    1   
$EndComp
$Comp
L Amplifier_Operational:TL074 U3
U 3 1 5EEAC72F
P 8500 2400
F 0 "U3" H 8450 2750 50  0000 C CNN
F 1 "TL074" H 8450 2650 50  0000 C CNN
F 2 "Package_DIP:DIP-14_W7.62mm_Socket_LongPads" H 8450 2500 50  0001 C CNN
F 3 "http://www.ti.com/lit/ds/symlink/tl071.pdf" H 8550 2600 50  0001 C CNN
	3    8500 2400
	1    0    0    1   
$EndComp
$Comp
L Amplifier_Operational:TL074 U3
U 4 1 5EEAC86B
P 9400 2500
F 0 "U3" H 9350 2850 50  0000 C CNN
F 1 "TL074" H 9350 2750 50  0000 C CNN
F 2 "Package_DIP:DIP-14_W7.62mm_Socket_LongPads" H 9350 2600 50  0001 C CNN
F 3 "http://www.ti.com/lit/ds/symlink/tl071.pdf" H 9450 2700 50  0001 C CNN
	4    9400 2500
	1    0    0    1   
$EndComp
$Comp
L Amplifier_Operational:TL074 U3
U 5 1 5EEAC9BE
P 6050 4550
F 0 "U3" H 6008 4596 50  0000 L CNN
F 1 "TL074" H 6008 4505 50  0000 L CNN
F 2 "Package_DIP:DIP-14_W7.62mm_Socket_LongPads" H 6000 4650 50  0001 C CNN
F 3 "http://www.ti.com/lit/ds/symlink/tl071.pdf" H 6100 4750 50  0001 C CNN
	5    6050 4550
	1    0    0    -1  
$EndComp
Connection ~ 7350 8300
$Comp
L Mechanical:MountingHole H?
U 1 1 5E4847AE
P 15200 9400
AR Path="/5E4847AE" Ref="H?"  Part="1" 
AR Path="/5DE3964E/5E4847AE" Ref="H23"  Part="1" 
F 0 "H23" H 15300 9446 50  0000 L CNN
F 1 "MountingHole" H 15300 9355 50  0000 L CNN
F 2 "MountingHole:MountingHole_3.2mm_M3" H 15200 9400 50  0001 C CNN
F 3 "~" H 15200 9400 50  0001 C CNN
	1    15200 9400
	1    0    0    -1  
$EndComp
$Comp
L Mechanical:MountingHole H?
U 1 1 5E4847BC
P 15200 9650
AR Path="/5E4847BC" Ref="H?"  Part="1" 
AR Path="/5DE3964E/5E4847BC" Ref="H24"  Part="1" 
F 0 "H24" H 15300 9696 50  0000 L CNN
F 1 "MountingHole" H 15300 9605 50  0000 L CNN
F 2 "MountingHole:MountingHole_3.2mm_M3" H 15200 9650 50  0001 C CNN
F 3 "~" H 15200 9650 50  0001 C CNN
	1    15200 9650
	1    0    0    -1  
$EndComp
Wire Wire Line
	7550 10250 7650 10250
Wire Wire Line
	7650 10250 7650 10400
Wire Wire Line
	7050 10250 6950 10250
Wire Wire Line
	6950 10250 6950 10400
Wire Wire Line
	6950 10400 7300 10400
$Comp
L power:GND #PWR0166
U 1 1 5E49E768
P 7900 10200
AR Path="/5DE3964E/5E49E768" Ref="#PWR0166"  Part="1" 
AR Path="/5E49E768" Ref="#PWR?"  Part="1" 
F 0 "#PWR0166" H 7900 9950 50  0001 C CNN
F 1 "GND" H 7905 10027 50  0000 C CNN
F 2 "" H 7900 10200 50  0001 C CNN
F 3 "" H 7900 10200 50  0001 C CNN
	1    7900 10200
	1    0    0    -1  
$EndComp
Wire Wire Line
	7900 10200 7900 10150
Wire Wire Line
	7900 10150 7550 10150
$Comp
L power:GND #PWR0168
U 1 1 5E49E770
P 6700 10200
AR Path="/5DE3964E/5E49E770" Ref="#PWR0168"  Part="1" 
AR Path="/5E49E770" Ref="#PWR?"  Part="1" 
F 0 "#PWR0168" H 6700 9950 50  0001 C CNN
F 1 "GND" H 6705 10027 50  0000 C CNN
F 2 "" H 6700 10200 50  0001 C CNN
F 3 "" H 6700 10200 50  0001 C CNN
	1    6700 10200
	1    0    0    -1  
$EndComp
Wire Wire Line
	7050 10150 6700 10150
Wire Wire Line
	6700 10150 6700 10200
$Comp
L power:+12VA #PWR0169
U 1 1 5E49E778
P 8400 9600
AR Path="/5DE3964E/5E49E778" Ref="#PWR0169"  Part="1" 
AR Path="/5E49E778" Ref="#PWR?"  Part="1" 
F 0 "#PWR0169" H 8400 9450 50  0001 C CNN
F 1 "+12VA" H 8415 9773 50  0000 C CNN
F 2 "" H 8400 9600 50  0001 C CNN
F 3 "" H 8400 9600 50  0001 C CNN
	1    8400 9600
	1    0    0    -1  
$EndComp
Connection ~ 7300 10400
Wire Wire Line
	7300 10400 7650 10400
Text Label 1750 9850 2    50   ~ 0
PULSE_1_BOTTOM
Text Label 2250 9850 0    50   ~ 0
PULSE_2_BOTTOM
Text Label 1750 9950 2    50   ~ 0
PULSE_3_BOTTOM
Text Label 2250 9950 0    50   ~ 0
PULSE_4_BOTTOM
Text Label 1750 10050 2    50   ~ 0
PULSE_5_BOTTOM
Text Label 2250 10050 0    50   ~ 0
PULSE_6_BOTTOM
Text Label 1750 10150 2    50   ~ 0
PULSE_7_BOTTOM
Text Label 2250 10150 0    50   ~ 0
PULSE_8_BOTTOM
Text Label 2250 10350 0    50   ~ 0
PULSE_12_BOTTOM
Text Label 1750 10250 2    50   ~ 0
PULSE_47_BOTTOM
Text Label 2250 10250 0    50   ~ 0
PULSE_24_BOTTOM
Text Label 7050 9850 2    50   ~ 0
CV1_BOTTOM
Text Label 4250 9850 2    50   ~ 0
GATE_1_BOTTOM
Text Label 4750 9850 0    50   ~ 0
GATE_2_BOTTOM
Text Label 4250 9950 2    50   ~ 0
GATE_3_BOTTOM
Text Label 4750 9950 0    50   ~ 0
GATE_4_BOTTOM
Text Label 4250 10050 2    50   ~ 0
GATE_5_BOTTOM
Text Label 4750 10050 0    50   ~ 0
GATE_6_BOTTOM
Text Label 4250 10150 2    50   ~ 0
GATE_7_BOTTOM
Text Label 4250 10350 2    50   ~ 0
CLOCK_BOTTOM
Text Label 4750 10350 0    50   ~ 0
NOISE_BOTTOM
Text Label 7050 9950 2    50   ~ 0
SEQ_CONTROL_BOTTOM
Text Label 7550 9850 0    50   ~ 0
SEQUENCE_END_BOTTOM
Text Label 7550 9950 0    50   ~ 0
WR_SW_BOTTOM
Text Label 4250 10250 2    50   ~ 0
STEP_16_BOTTOM
Text Label 4750 10250 0    50   ~ 0
STEP_12_BOTTOM
$Comp
L Connector_Generic:Conn_02x06_Odd_Even J22
U 1 1 5E49E7A2
P 4550 10150
AR Path="/5DE3964E/5E49E7A2" Ref="J22"  Part="1" 
AR Path="/5E49E7A2" Ref="J?"  Part="1" 
F 0 "J22" H 4600 10800 50  0000 C CNN
F 1 "GATES_BOTTOM" H 4600 10900 50  0000 C CNN
F 2 "Connector_PinHeader_2.54mm:PinHeader_2x06_P2.54mm_Vertical" H 4550 10150 50  0001 C CNN
F 3 "~" H 4550 10150 50  0001 C CNN
	1    4550 10150
	-1   0    0    1   
$EndComp
Text Label 4750 10150 0    50   ~ 0
GATE_8_BOTTOM
$Comp
L power:-12VA #PWR?
U 1 1 5E49E7AA
P 7300 10400
AR Path="/5E49E7AA" Ref="#PWR?"  Part="1" 
AR Path="/5DE3964E/5E49E7AA" Ref="#PWR0170"  Part="1" 
F 0 "#PWR0170" H 7300 10250 50  0001 C CNN
F 1 "-12VA" H 7315 10573 50  0000 C CNN
F 2 "" H 7300 10400 50  0001 C CNN
F 3 "" H 7300 10400 50  0001 C CNN
	1    7300 10400
	-1   0    0    1   
$EndComp
$Comp
L Connector_Generic:Conn_02x05_Odd_Even J?
U 1 1 5E49E7B0
P 7250 10050
AR Path="/5E49E7B0" Ref="J?"  Part="1" 
AR Path="/5DE3964E/5E49E7B0" Ref="J23"  Part="1" 
F 0 "J23" H 7300 9350 50  0000 C CNN
F 1 "CV_SUPPLY_BOTTOM" H 7050 9250 50  0000 L CNN
F 2 "Connector_PinHeader_2.54mm:PinHeader_2x05_P2.54mm_Vertical" H 7250 10050 50  0001 C CNN
F 3 "~" H 7250 10050 50  0001 C CNN
	1    7250 10050
	1    0    0    -1  
$EndComp
Wire Wire Line
	8400 10050 8400 9650
Wire Wire Line
	7550 10050 8400 10050
Wire Wire Line
	7050 10050 6200 10050
Wire Wire Line
	6200 10050 6200 9650
Connection ~ 8400 9650
Wire Wire Line
	8400 9650 8400 9600
Wire Wire Line
	2950 1850 3450 1850
Wire Wire Line
	6200 9650 8400 9650
$Comp
L Device:C C8
U 1 1 5E3FBB51
P 6850 8500
F 0 "C8" H 6600 8550 50  0000 L CNN
F 1 "100nF" H 6500 8450 50  0000 L CNN
F 2 "Capacitor_THT:C_Disc_D8.0mm_W2.5mm_P5.00mm" H 6888 8350 50  0001 C CNN
F 3 "~" H 6850 8500 50  0001 C CNN
	1    6850 8500
	1    0    0    -1  
$EndComp
Wire Wire Line
	7350 8300 6850 8300
Wire Wire Line
	6850 8300 6850 8350
$Comp
L Device:C C20
U 1 1 5E96FC5D
P 7350 8500
F 0 "C20" H 7100 8550 50  0000 L CNN
F 1 "100nF" H 7000 8450 50  0000 L CNN
F 2 "Capacitor_THT:C_Disc_D8.0mm_W2.5mm_P5.00mm" H 7388 8350 50  0001 C CNN
F 3 "~" H 7350 8500 50  0001 C CNN
	1    7350 8500
	1    0    0    -1  
$EndComp
Wire Wire Line
	6850 8650 6850 8700
Wire Wire Line
	6850 8700 7350 8700
Wire Wire Line
	7350 8650 7350 8700
Wire Wire Line
	9000 6650 10500 6650
Wire Wire Line
	10500 7300 9150 7300
Wire Wire Line
	9150 7300 9150 7650
Wire Wire Line
	9000 7650 9150 7650
Text Label 12200 6550 0    50   ~ 0
STEP_16_BOTTOM
Text Label 12200 6400 0    50   ~ 0
STEP_12_BOTTOM
Wire Wire Line
	12000 6400 12200 6400
Wire Wire Line
	12000 6550 12200 6550
Text Label 12200 6800 0    50   ~ 0
GATE_1_BOTTOM
Text Label 12200 6950 0    50   ~ 0
GATE_2_BOTTOM
Text Label 12200 7100 0    50   ~ 0
GATE_3_BOTTOM
Text Label 12200 7250 0    50   ~ 0
GATE_4_BOTTOM
Text Label 12200 7400 0    50   ~ 0
GATE_5_BOTTOM
Text Label 12200 7550 0    50   ~ 0
GATE_6_BOTTOM
Text Label 12200 7700 0    50   ~ 0
GATE_7_BOTTOM
Text Label 12200 7850 0    50   ~ 0
GATE_8_BOTTOM
Wire Wire Line
	12200 6800 12000 6800
Wire Wire Line
	12000 6950 12200 6950
Wire Wire Line
	12200 7100 12000 7100
Wire Wire Line
	12000 7250 12200 7250
Wire Wire Line
	12200 7400 12000 7400
Wire Wire Line
	12000 7550 12200 7550
Wire Wire Line
	12000 7700 12200 7700
Wire Wire Line
	12000 7850 12200 7850
Wire Wire Line
	8450 7750 8450 7850
Wire Wire Line
	8450 5750 8450 5800
$Comp
L power:GND #PWR0161
U 1 1 5E6E60B2
P 8450 5800
F 0 "#PWR0161" H 8450 5550 50  0001 C CNN
F 1 "GND" H 8600 5750 50  0000 C CNN
F 2 "" H 8450 5800 50  0001 C CNN
F 3 "" H 8450 5800 50  0001 C CNN
	1    8450 5800
	1    0    0    -1  
$EndComp
$Comp
L power:+12VA #PWR0162
U 1 1 5E73ED93
P 8450 4200
F 0 "#PWR0162" H 8450 4050 50  0001 C CNN
F 1 "+12VA" H 8465 4373 50  0000 C CNN
F 2 "" H 8450 4200 50  0001 C CNN
F 3 "" H 8450 4200 50  0001 C CNN
	1    8450 4200
	1    0    0    -1  
$EndComp
Wire Wire Line
	8450 4250 8450 4200
$Comp
L power:+12VA #PWR0175
U 1 1 5E75DD73
P 8450 6200
F 0 "#PWR0175" H 8450 6050 50  0001 C CNN
F 1 "+12VA" H 8465 6373 50  0000 C CNN
F 2 "" H 8450 6200 50  0001 C CNN
F 3 "" H 8450 6200 50  0001 C CNN
	1    8450 6200
	1    0    0    -1  
$EndComp
Wire Wire Line
	8450 6200 8450 6250
$Comp
L power:GND #PWR0176
U 1 1 5E77C94D
P 7350 8700
F 0 "#PWR0176" H 7350 8450 50  0001 C CNN
F 1 "GND" H 7355 8527 50  0000 C CNN
F 2 "" H 7350 8700 50  0001 C CNN
F 3 "" H 7350 8700 50  0001 C CNN
	1    7350 8700
	1    0    0    -1  
$EndComp
Connection ~ 7350 8700
Wire Wire Line
	2300 3900 2350 3900
Wire Wire Line
	2700 4300 2700 3900
Wire Wire Line
	2200 4300 2700 4300
Connection ~ 2700 3900
Wire Wire Line
	2700 3900 2850 3900
$Comp
L Connector_Generic:Conn_02x06_Odd_Even J21
U 1 1 5E49E78B
P 2050 10150
AR Path="/5DE3964E/5E49E78B" Ref="J21"  Part="1" 
AR Path="/5E49E78B" Ref="J?"  Part="1" 
F 0 "J21" H 2100 10800 50  0000 C CNN
F 1 "PULSES_BOTTOM" H 2100 10900 50  0000 C CNN
F 2 "Connector_PinHeader_2.54mm:PinHeader_2x06_P2.54mm_Vertical" H 2050 10150 50  0001 C CNN
F 3 "~" H 2050 10150 50  0001 C CNN
	1    2050 10150
	-1   0    0    1   
$EndComp
NoConn ~ 1750 10350
Text Notes 4550 7050 0    50   ~ 0
0-10V range
Text Notes 4950 850  0    50   ~ 0
Reduced trimmer value to 500K\nEasier to tune, better sensitivity\n
Text Notes 6500 850  0    50   ~ 0
R52 may be adjusted to get the right noise level\nA higher value needs a higher noise level for proper operation\n
Text Notes 2850 3750 0    50   ~ 0
0-10V range
Text Notes 3400 3050 2    50   ~ 0
R43 sets hysteresis amount
$Sheet
S 10500 4400 1500 4500
U 5DF7D519
F0 "logic" 47
F1 "logic.sch" 47
F2 "BIT1" I L 10500 4650 50 
F3 "BIT2" I L 10500 4800 50 
F4 "BIT7" I L 10500 5550 50 
F5 "BIT4" I L 10500 5100 50 
F6 "BIT3" I L 10500 4950 50 
F7 "BIT5" I L 10500 5250 50 
F8 "BIT6" I L 10500 5400 50 
F9 "BIT8" I L 10500 5700 50 
F10 "CLOCK" I L 10500 4500 50 
F11 "PULSE_12" O R 12000 5800 50 
F12 "PULSE_47" O R 12000 5950 50 
F13 "PULSE_24" O R 12000 6100 50 
F14 "PULSE_8_BOTTOM" O R 12000 5650 50 
F15 "PULSE_7_BOTTOM" O R 12000 5500 50 
F16 "PULSE_6_BOTTOM" O R 12000 5350 50 
F17 "PULSE_5_BOTTOM" O R 12000 5200 50 
F18 "PULSE_4_BOTTOM" O R 12000 5050 50 
F19 "PULSE_3_BOTTOM" O R 12000 4900 50 
F20 "PULSE_2_BOTTOM" O R 12000 4750 50 
F21 "PULSE_1_BOTTOM" O R 12000 4600 50 
F22 "STEP_12" I L 10500 6650 50 
F23 "STEP_16" I L 10500 7300 50 
F24 "STEP_12_BOTTOM" O R 12000 6400 50 
F25 "STEP_16_BOTTOM" O R 12000 6550 50 
F26 "GATE_1" O R 12000 6800 50 
F27 "GATE_2" O R 12000 6950 50 
F28 "GATE_5" O R 12000 7400 50 
F29 "GATE_6" O R 12000 7550 50 
F30 "GATE_3" O R 12000 7100 50 
F31 "GATE_4" O R 12000 7250 50 
F32 "GATE_7" O R 12000 7700 50 
F33 "GATE_8" O R 12000 7850 50 
F34 "CLOCK_BUFF" O L 10500 8350 50 
$EndSheet
Connection ~ 7200 4950
Connection ~ 7200 5950
Connection ~ 7200 6950
Wire Wire Line
	10500 8350 10000 8350
Text Label 10000 8350 2    50   ~ 0
CLOCK_BUFF
Text Notes 9500 8600 0    50   ~ 0
Buffered clock to drive\nthe CD4015
$EndSCHEMATC
