G04 #@! TF.GenerationSoftware,KiCad,Pcbnew,5.1.7-a382d34a8~87~ubuntu18.04.1*
G04 #@! TF.CreationDate,2020-10-31T09:29:08+01:00*
G04 #@! TF.ProjectId,alan_and_friends,616c616e-5f61-46e6-945f-667269656e64,2*
G04 #@! TF.SameCoordinates,Original*
G04 #@! TF.FileFunction,Profile,NP*
%FSLAX46Y46*%
G04 Gerber Fmt 4.6, Leading zero omitted, Abs format (unit mm)*
G04 Created by KiCad (PCBNEW 5.1.7-a382d34a8~87~ubuntu18.04.1) date 2020-10-31 09:29:08*
%MOMM*%
%LPD*%
G01*
G04 APERTURE LIST*
G04 #@! TA.AperFunction,Profile*
%ADD10C,0.150000*%
G04 #@! TD*
G04 APERTURE END LIST*
D10*
X139649200Y-193827400D02*
G75*
G02*
X138430000Y-192608200I0J1219200D01*
G01*
X138430000Y-200050400D02*
G75*
G02*
X139649200Y-198831200I1219200J0D01*
G01*
X139649200Y-198831200D02*
G75*
G02*
X140868400Y-200050400I0J-1219200D01*
G01*
X140868400Y-192608200D02*
G75*
G02*
X139649200Y-193827400I-1219200J0D01*
G01*
X139649200Y-153212800D02*
G75*
G02*
X138430000Y-151993600I0J1219200D01*
G01*
X140868400Y-151993600D02*
G75*
G02*
X139649200Y-153212800I-1219200J0D01*
G01*
X139649200Y-158216600D02*
G75*
G02*
X140868400Y-159435800I0J-1219200D01*
G01*
X138430000Y-159435800D02*
G75*
G02*
X139649200Y-158216600I1219200J0D01*
G01*
X138430000Y-118618000D02*
X138430000Y-151993600D01*
X140868400Y-118618000D02*
X140868400Y-151993600D01*
X138430000Y-159435800D02*
X138430000Y-192608200D01*
X140868400Y-159435800D02*
X140868400Y-192608200D01*
X138430000Y-104775000D02*
X138430000Y-111175800D01*
X140868400Y-104775000D02*
X140868400Y-111175800D01*
X138430000Y-118618000D02*
G75*
G02*
X139649200Y-117398800I1219200J0D01*
G01*
X139649200Y-117398800D02*
G75*
G02*
X140868400Y-118618000I0J-1219200D01*
G01*
X140868400Y-111175800D02*
G75*
G02*
X139649200Y-112395000I-1219200J0D01*
G01*
X139649200Y-112395000D02*
G75*
G02*
X138430000Y-111175800I0J1219200D01*
G01*
X234848400Y-104775000D02*
X234848400Y-206375000D01*
X231673400Y-209550000D02*
X144043400Y-209550000D01*
X231673400Y-101600000D02*
X144043400Y-101600000D01*
X140868400Y-200050400D02*
X140868400Y-206375000D01*
X140868400Y-104775000D02*
G75*
G02*
X144043400Y-101600000I3175000J0D01*
G01*
X144043400Y-209550000D02*
G75*
G02*
X140868400Y-206375000I0J3175000D01*
G01*
X234848400Y-206375000D02*
G75*
G02*
X231673400Y-209550000I-3175000J0D01*
G01*
X231673400Y-101600000D02*
G75*
G02*
X234848400Y-104775000I0J-3175000D01*
G01*
X63500000Y-119379999D02*
G75*
G02*
X60960000Y-121920000I-2540000J-1D01*
G01*
X44450000Y-124460000D02*
G75*
G02*
X46990000Y-121919999I2540000J1D01*
G01*
X63500000Y-104140001D02*
G75*
G02*
X66040000Y-101600000I2540000J1D01*
G01*
X60960000Y-121920000D02*
X46990000Y-121920000D01*
X63500000Y-104140000D02*
X63500000Y-119380000D01*
X47625000Y-254000000D02*
G75*
G02*
X44450000Y-250825000I0J3175000D01*
G01*
X138430000Y-250825000D02*
G75*
G02*
X135255000Y-254000000I-3175000J0D01*
G01*
X135255000Y-101600000D02*
G75*
G02*
X138430000Y-104775000I0J-3175000D01*
G01*
X135255000Y-254000000D02*
X47625000Y-254000000D01*
X138430000Y-200050400D02*
X138430000Y-250825000D01*
X66040000Y-101600000D02*
X135255000Y-101600000D01*
X44450000Y-124460000D02*
X44450000Y-250825000D01*
M02*
